{
  "Notes": [
    {
      "id":1,
      "titre":"super titre",
      "proprietaireId":1,
      "contenu":"blabalbalbalbla",
      "important":true
    }
  ],
  "Proprietaires": [
    {
      "id":1,
      "nom":"BOB",
      "prenom":"John"
    },
    {
      "id":2,
      "nom":"ASSIN",
      "prenom":"Marc"
    }
  ]
}
